	Mean	Mean	Mean	Mean	Mean	Mean	Mean	Mean	Mean	\\JMU.AC.UK\PFS\HS01F\Store05\HS229232\My Documents\Taught Modules\Sem 2\Gait\Clinical Data\Clinical Data\6DOF\Tracked\c3d\6DOF Walk Left0002_t.c3d	\\JMU.AC.UK\PFS\HS01F\Store05\HS229232\My Documents\Taught Modules\Sem 2\Gait\Clinical Data\Clinical Data\6DOF\Tracked\c3d\6DOF Walk Left0002_t.c3d	\\JMU.AC.UK\PFS\HS01F\Store05\HS229232\My Documents\Taught Modules\Sem 2\Gait\Clinical Data\Clinical Data\6DOF\Tracked\c3d\6DOF Walk Left0002_t.c3d	\\JMU.AC.UK\PFS\HS01F\Store05\HS229232\My Documents\Taught Modules\Sem 2\Gait\Clinical Data\Clinical Data\6DOF\Tracked\c3d\6DOF Walk Left0002_t.c3d	\\JMU.AC.UK\PFS\HS01F\Store05\HS229232\My Documents\Taught Modules\Sem 2\Gait\Clinical Data\Clinical Data\6DOF\Tracked\c3d\6DOF Walk Left0002_t.c3d	\\JMU.AC.UK\PFS\HS01F\Store05\HS229232\My Documents\Taught Modules\Sem 2\Gait\Clinical Data\Clinical Data\6DOF\Tracked\c3d\6DOF Walk Left0002_t.c3d	\\JMU.AC.UK\PFS\HS01F\Store05\HS229232\My Documents\Taught Modules\Sem 2\Gait\Clinical Data\Clinical Data\6DOF\Tracked\c3d\6DOF Walk Left0002_t.c3d	\\JMU.AC.UK\PFS\HS01F\Store05\HS229232\My Documents\Taught Modules\Sem 2\Gait\Clinical Data\Clinical Data\6DOF\Tracked\c3d\6DOF Walk Left0002_t.c3d	\\JMU.AC.UK\PFS\HS01F\Store05\HS229232\My Documents\Taught Modules\Sem 2\Gait\Clinical Data\Clinical Data\6DOF\Tracked\c3d\6DOF Walk Left0002_t.c3d
	L ankle moment	L ankle moment	L ankle moment	L knee moment	L knee moment	L knee moment	L hip moment	L hip moment	L hip moment	L ankle moment	L ankle moment	L ankle moment	L knee moment	L knee moment	L knee moment	L hip moment	L hip moment	L hip moment
	LINK_MODEL_BASED	LINK_MODEL_BASED	LINK_MODEL_BASED	LINK_MODEL_BASED	LINK_MODEL_BASED	LINK_MODEL_BASED	LINK_MODEL_BASED	LINK_MODEL_BASED	LINK_MODEL_BASED	LINK_MODEL_BASED	LINK_MODEL_BASED	LINK_MODEL_BASED	LINK_MODEL_BASED	LINK_MODEL_BASED	LINK_MODEL_BASED	LINK_MODEL_BASED	LINK_MODEL_BASED	LINK_MODEL_BASED
	ORIGINAL	ORIGINAL	ORIGINAL	ORIGINAL	ORIGINAL	ORIGINAL	ORIGINAL	ORIGINAL	ORIGINAL	ORIGINAL	ORIGINAL	ORIGINAL	ORIGINAL	ORIGINAL	ORIGINAL	ORIGINAL	ORIGINAL	ORIGINAL
ITEM	X	Y	Z	X	Y	Z	X	Y	Z	X	Y	Z	X	Y	Z	X	Y	Z
1	-0.020376	0.036695	-0.020243	-0.231897	0.040466	-0.009189	0.312076	0.092585	-0.076176	-0.020376	0.036695	-0.020243	-0.231897	0.040466	-0.009189	0.312076	0.092585	-0.076176
2	-0.110955	0.041895	0.129934	-1.342975	-0.399332	0.113080	3.204054	-0.410931	0.507366	-0.110955	0.041895	0.129934	-1.342975	-0.399332	0.113080	3.204054	-0.410931	0.507366
3	-0.291580	0.011039	0.111755	-0.482308	-0.274237	0.084600	1.681166	-0.363332	0.403724	-0.291580	0.011039	0.111755	-0.482308	-0.274237	0.084600	1.681166	-0.363332	0.403724
4	-0.609230	0.130472	-0.074051	0.115667	0.231364	-0.036179	0.910624	0.117727	-0.094777	-0.609230	0.130472	-0.074051	0.115667	0.231364	-0.036179	0.910624	0.117727	-0.094777
5	-0.690711	0.138901	-0.115502	0.492565	0.330401	-0.067440	0.311670	0.172636	-0.189356	-0.690711	0.138901	-0.115502	0.492565	0.330401	-0.067440	0.311670	0.172636	-0.189356
6	-0.537569	0.172930	-0.168517	-0.047094	0.340287	-0.097659	1.506655	0.234458	-0.171729	-0.537569	0.172930	-0.168517	-0.047094	0.340287	-0.097659	1.506655	0.234458	-0.171729
7	-0.652283	0.289312	-0.371540	0.259977	0.822161	-0.201039	1.332015	0.777143	-0.640372	-0.652283	0.289312	-0.371540	0.259977	0.822161	-0.201039	1.332015	0.777143	-0.640372
8	-0.699009	0.340400	-0.504391	0.716203	1.122036	-0.270460	0.728042	1.102122	-0.956757	-0.699009	0.340400	-0.504391	0.716203	1.122036	-0.270460	0.728042	1.102122	-0.956757
9	-0.648727	0.385491	-0.631876	0.729790	1.377930	-0.319586	0.994232	1.449890	-1.182679	-0.648727	0.385491	-0.631876	0.729790	1.377930	-0.319586	0.994232	1.449890	-1.182679
10	-0.624514	0.367513	-0.674308	0.919065	1.421418	-0.344011	0.875920	1.495017	-1.219984	-0.624514	0.367513	-0.674308	0.919065	1.421418	-0.344011	0.875920	1.495017	-1.219984
11	-0.653818	0.373745	-0.741239	1.184756	1.579286	-0.364666	0.699356	1.702764	-1.359570	-0.653818	0.373745	-0.741239	1.184756	1.579286	-0.364666	0.699356	1.702764	-1.359570
12	-0.628436	0.342760	-0.745022	1.343549	1.573348	-0.363373	0.688408	1.701547	-1.327726	-0.628436	0.342760	-0.745022	1.343549	1.573348	-0.363373	0.688408	1.701547	-1.327726
13	-0.623157	0.297182	-0.716291	1.469149	1.526475	-0.341146	0.671062	1.664425	-1.256101	-0.623157	0.297182	-0.716291	1.469149	1.526475	-0.341146	0.671062	1.664425	-1.256101
14	-0.556467	0.271115	-0.703972	1.464989	1.527585	-0.313533	0.763549	1.715266	-1.219182	-0.556467	0.271115	-0.703972	1.464989	1.527585	-0.313533	0.763549	1.715266	-1.219182
15	-0.518454	0.241567	-0.689216	1.452316	1.526991	-0.284949	0.787274	1.762501	-1.188104	-0.518454	0.241567	-0.689216	1.452316	1.526991	-0.284949	0.787274	1.762501	-1.188104
16	-0.455544	0.211582	-0.681099	1.410687	1.521846	-0.265461	0.772666	1.800690	-1.165601	-0.455544	0.211582	-0.681099	1.410687	1.521846	-0.265461	0.772666	1.800690	-1.165601
17	-0.392271	0.200042	-0.674353	1.360426	1.523729	-0.247607	0.730830	1.838325	-1.144409	-0.392271	0.200042	-0.674353	1.360426	1.523729	-0.247607	0.730830	1.838325	-1.144409
18	-0.352367	0.183544	-0.674661	1.347990	1.532226	-0.240964	0.592793	1.883800	-1.147839	-0.352367	0.183544	-0.674661	1.347990	1.532226	-0.240964	0.592793	1.883800	-1.147839
19	-0.279209	0.177810	-0.676024	1.300179	1.534440	-0.238187	0.490080	1.920756	-1.141872	-0.279209	0.177810	-0.676024	1.300179	1.534440	-0.238187	0.490080	1.920756	-1.141872
20	-0.210822	0.154824	-0.668046	1.232885	1.504462	-0.238347	0.421929	1.924248	-1.114803	-0.210822	0.154824	-0.668046	1.232885	1.504462	-0.238347	0.421929	1.924248	-1.114803
21	-0.128252	0.126505	-0.636572	1.140342	1.426952	-0.230639	0.398427	1.862700	-1.041955	-0.128252	0.126505	-0.636572	1.140342	1.426952	-0.230639	0.398427	1.862700	-1.041955
22	-0.044807	0.098149	-0.587480	1.058292	1.318986	-0.216592	0.355970	1.751127	-0.944131	-0.044807	0.098149	-0.587480	1.058292	1.318986	-0.216592	0.355970	1.751127	-0.944131
23	0.037165	0.070835	-0.526746	0.975861	1.191682	-0.197057	0.319948	1.605631	-0.830002	0.037165	0.070835	-0.526746	0.975861	1.191682	-0.197057	0.319948	1.605631	-0.830002
24	0.121318	0.040734	-0.476232	0.905800	1.079184	-0.183636	0.274888	1.478740	-0.735907	0.121318	0.040734	-0.476232	0.905800	1.079184	-0.183636	0.274888	1.478740	-0.735907
25	0.206771	0.014035	-0.443982	0.836915	1.000848	-0.177561	0.237308	1.400092	-0.670744	0.206771	0.014035	-0.443982	0.836915	1.000848	-0.177561	0.237308	1.400092	-0.670744
26	0.291212	-0.002124	-0.426732	0.764970	0.958903	-0.174756	0.216513	1.371634	-0.627357	0.291212	-0.002124	-0.426732	0.764970	0.958903	-0.174756	0.216513	1.371634	-0.627357
27	0.368312	-0.019311	-0.416650	0.694178	0.932458	-0.174504	0.208225	1.365049	-0.594121	0.368312	-0.019311	-0.416650	0.694178	0.932458	-0.174504	0.208225	1.365049	-0.594121
28	0.463879	-0.029251	-0.414401	0.610091	0.928781	-0.173629	0.219632	1.390508	-0.570232	0.463879	-0.029251	-0.414401	0.610091	0.928781	-0.173629	0.219632	1.390508	-0.570232
29	0.524976	-0.053120	-0.404487	0.566075	0.909090	-0.172462	0.181930	1.388158	-0.542453	0.524976	-0.053120	-0.404487	0.566075	0.909090	-0.172462	0.181930	1.388158	-0.542453
30	0.610607	-0.066238	-0.390551	0.506608	0.886105	-0.165865	0.163855	1.376822	-0.506312	0.610607	-0.066238	-0.390551	0.506608	0.886105	-0.165865	0.163855	1.376822	-0.506312
31	0.705657	-0.086569	-0.368109	0.450528	0.843417	-0.155639	0.140766	1.338035	-0.461956	0.705657	-0.086569	-0.368109	0.450528	0.843417	-0.155639	0.140766	1.338035	-0.461956
32	0.807363	-0.106170	-0.343835	0.396624	0.802137	-0.142230	0.119282	1.303759	-0.418005	0.807363	-0.106170	-0.343835	0.396624	0.802137	-0.142230	0.119282	1.303759	-0.418005
33	0.895240	-0.123692	-0.320762	0.346438	0.765222	-0.128514	0.099632	1.279880	-0.377451	0.895240	-0.123692	-0.320762	0.346438	0.765222	-0.128514	0.099632	1.279880	-0.377451
34	0.992023	-0.136395	-0.307738	0.286299	0.742730	-0.119944	0.084375	1.287388	-0.348428	0.992023	-0.136395	-0.307738	0.286299	0.742730	-0.119944	0.084375	1.287388	-0.348428
35	1.099798	-0.148038	-0.302378	0.209631	0.732235	-0.114720	0.081583	1.329504	-0.327269	1.099798	-0.148038	-0.302378	0.209631	0.732235	-0.114720	0.081583	1.329504	-0.327269
36	1.183310	-0.149748	-0.305836	0.157327	0.747115	-0.113776	0.044433	1.407407	-0.316643	1.183310	-0.149748	-0.305836	0.157327	0.747115	-0.113776	0.044433	1.407407	-0.316643
37	1.271309	-0.158673	-0.302313	0.105124	0.745886	-0.110309	0.010222	1.462986	-0.298940	1.271309	-0.158673	-0.302313	0.105124	0.745886	-0.110309	0.010222	1.462986	-0.298940
38	1.368551	-0.168297	-0.291185	0.066045	0.731228	-0.103262	-0.031759	1.488493	-0.274203	1.368551	-0.168297	-0.291185	0.066045	0.731228	-0.103262	-0.031759	1.488493	-0.274203
39	1.477873	-0.177502	-0.277077	0.024314	0.717285	-0.092046	-0.060165	1.516209	-0.244568	1.477873	-0.177502	-0.277077	0.024314	0.717285	-0.092046	-0.060165	1.516209	-0.244568
40	1.597626	-0.192792	-0.267988	-0.006000	0.709399	-0.084154	-0.101977	1.551744	-0.220298	1.597626	-0.192792	-0.267988	-0.006000	0.709399	-0.084154	-0.101977	1.551744	-0.220298
41	1.716958	-0.205379	-0.264775	-0.019112	0.723759	-0.076118	-0.158917	1.614254	-0.199508	1.716958	-0.205379	-0.264775	-0.019112	0.723759	-0.076118	-0.158917	1.614254	-0.199508
42	1.866891	-0.207724	-0.276395	-0.035983	0.778942	-0.070686	-0.213009	1.741301	-0.184514	1.866891	-0.207724	-0.276395	-0.035983	0.778942	-0.070686	-0.213009	1.741301	-0.184514
43	1.995577	-0.209438	-0.297793	-0.054189	0.860651	-0.066003	-0.238461	1.915428	-0.168469	1.995577	-0.209438	-0.297793	-0.054189	0.860651	-0.066003	-0.238461	1.915428	-0.168469
44	2.140200	-0.209636	-0.305964	-0.054973	0.923089	-0.052252	-0.292687	2.045081	-0.141755	2.140200	-0.209636	-0.305964	-0.054973	0.923089	-0.052252	-0.292687	2.045081	-0.141755
45	2.267998	-0.216218	-0.287508	-0.034263	0.940590	-0.023502	-0.361561	2.089755	-0.097988	2.267998	-0.216218	-0.287508	-0.034263	0.940590	-0.023502	-0.361561	2.089755	-0.097988
46	2.389021	-0.201727	-0.262508	-0.024363	0.961718	0.014811	-0.394485	2.129172	-0.042011	2.389021	-0.201727	-0.262508	-0.024363	0.961718	0.014811	-0.394485	2.129172	-0.042011
47	2.496136	-0.183061	-0.235596	-0.012528	0.978962	0.055374	-0.421323	2.157506	0.017002	2.496136	-0.183061	-0.235596	-0.012528	0.978962	0.055374	-0.421323	2.157506	0.017002
48	2.602075	-0.161235	-0.207995	0.019192	1.000527	0.098617	-0.474335	2.180894	0.077226	2.602075	-0.161235	-0.207995	0.019192	1.000527	0.098617	-0.474335	2.180894	0.077226
49	2.668928	-0.132621	-0.184217	0.078707	1.028555	0.140327	-0.550303	2.189724	0.134248	2.668928	-0.132621	-0.184217	0.078707	1.028555	0.140327	-0.550303	2.189724	0.134248
50	2.727401	-0.090453	-0.160415	0.151177	1.063441	0.186034	-0.639722	2.185025	0.193814	2.727401	-0.090453	-0.160415	0.151177	1.063441	0.186034	-0.639722	2.185025	0.193814
51	2.758734	-0.038034	-0.143037	0.212987	1.097557	0.228906	-0.702974	2.165742	0.251245	2.758734	-0.038034	-0.143037	0.212987	1.097557	0.228906	-0.702974	2.165742	0.251245
52	2.741047	0.026023	-0.119987	0.268446	1.117202	0.277238	-0.722825	2.109926	0.314227	2.741047	0.026023	-0.119987	0.268446	1.117202	0.277238	-0.722825	2.109926	0.314227
53	2.673854	0.098786	-0.091782	0.323486	1.113783	0.326701	-0.717802	2.006769	0.375234	2.673854	0.098786	-0.091782	0.323486	1.113783	0.326701	-0.717802	2.006769	0.375234
54	2.539566	0.173945	-0.056212	0.384516	1.059855	0.366314	-0.691701	1.810061	0.419627	2.539566	0.173945	-0.056212	0.384516	1.059855	0.366314	-0.691701	1.810061	0.419627
55	2.325966	0.239502	-0.010130	0.418614	0.929465	0.386670	-0.596429	1.497021	0.436346	2.325966	0.239502	-0.010130	0.418614	0.929465	0.386670	-0.596429	1.497021	0.436346
56	2.046634	0.291782	0.031139	0.414170	0.756304	0.381206	-0.439208	1.136897	0.419920	2.046634	0.291782	0.031139	0.414170	0.756304	0.381206	-0.439208	1.136897	0.419920
57	1.703567	0.326336	0.063872	0.354303	0.565659	0.354668	-0.213946	0.782655	0.376748	1.703567	0.326336	0.063872	0.354303	0.565659	0.354668	-0.213946	0.782655	0.376748
58	1.307742	0.316248	0.087277	0.181815	0.337678	0.295089	0.110003	0.428763	0.293715	1.307742	0.316248	0.087277	0.181815	0.337678	0.295089	0.110003	0.428763	0.293715
59	0.806897	0.214282	0.079028	0.225364	0.114904	0.148940	-0.092509	0.039177	0.150186	0.806897	0.214282	0.079028	0.225364	0.114904	0.148940	-0.092509	0.039177	0.150186
60	0.284531	0.074344	0.004176	0.390422	0.055212	-0.007319	-0.658474	-0.085116	0.036028	0.284531	0.074344	0.004176	0.390422	0.055212	-0.007319	-0.658474	-0.085116	0.036028
61	0.061243	0.022993	-0.023395	0.266029	0.048142	-0.027904	-0.604148	-0.037333	0.019316	0.061243	0.022993	-0.023395	0.266029	0.048142	-0.027904	-0.604148	-0.037333	0.019316
62	-0.031367	-0.011139	-0.020694	0.225796	0.015015	-0.048804	-0.599001	-0.081450	0.006957	-0.031367	-0.011139	-0.020694	0.225796	0.015015	-0.048804	-0.599001	-0.081450	0.006957
63	-0.052127	-0.006003	-0.024085	0.156970	0.025663	-0.031185	-0.522063	-0.042641	0.019162	-0.052127	-0.006003	-0.024085	0.156970	0.025663	-0.031185	-0.522063	-0.042641	0.019162
64	-0.032718	-0.000303	-0.005150	0.060704	-0.005580	-0.022721	-0.367369	-0.063203	0.017794	-0.032718	-0.000303	-0.005150	0.060704	-0.005580	-0.022721	-0.367369	-0.063203	0.017794
65	-0.030639	0.000024	-0.003322	0.065419	-0.006743	-0.026863	-0.360122	-0.058636	0.016867	-0.030639	0.000024	-0.003322	0.065419	-0.006743	-0.026863	-0.360122	-0.058636	0.016867
66	-0.027086	-0.000172	-0.001013	0.071261	-0.006520	-0.028716	-0.336921	-0.044947	0.015365	-0.027086	-0.000172	-0.001013	0.071261	-0.006520	-0.028716	-0.336921	-0.044947	0.015365
67	-0.022289	-0.000811	0.001720	0.072997	-0.006252	-0.027157	-0.285876	-0.027688	0.013171	-0.022289	-0.000811	0.001720	0.072997	-0.006252	-0.027157	-0.285876	-0.027688	0.013171
68	-0.017505	-0.001683	0.004189	0.067888	-0.007279	-0.024084	-0.212849	-0.011938	0.009570	-0.017505	-0.001683	0.004189	0.067888	-0.007279	-0.024084	-0.212849	-0.011938	0.009570
69	-0.013540	-0.002419	0.005944	0.055293	-0.010238	-0.022245	-0.137958	-0.002168	0.004772	-0.013540	-0.002419	0.005944	0.055293	-0.010238	-0.022245	-0.137958	-0.002168	0.004772
70	-0.010663	-0.002782	0.006816	0.039636	-0.013522	-0.021519	-0.079219	0.001810	0.000906	-0.010663	-0.002782	0.006816	0.039636	-0.013522	-0.021519	-0.079219	0.001810	0.000906
71	-0.008766	-0.002761	0.006838	0.024715	-0.016236	-0.021677	-0.042479	-0.000346	-0.000958	-0.008766	-0.002761	0.006838	0.024715	-0.016236	-0.021677	-0.042479	-0.000346	-0.000958
72	-0.007700	-0.002456	0.006188	0.010423	-0.019122	-0.024010	-0.023368	-0.011843	-0.000917	-0.007700	-0.002456	0.006188	0.010423	-0.019122	-0.024010	-0.023368	-0.011843	-0.000917
73	-0.007352	-0.001974	0.005100	-0.002667	-0.021319	-0.026462	-0.016082	-0.025617	0.000480	-0.007352	-0.001974	0.005100	-0.002667	-0.021319	-0.026462	-0.016082	-0.025617	0.000480
74	-0.007541	-0.001414	0.003822	-0.013262	-0.021517	-0.026310	-0.017455	-0.033243	0.002063	-0.007541	-0.001414	0.003822	-0.013262	-0.021517	-0.026310	-0.017455	-0.033243	0.002063
75	-0.008083	-0.000848	0.002586	-0.022271	-0.019870	-0.023460	-0.021239	-0.035191	0.003022	-0.008083	-0.000848	0.002586	-0.022271	-0.019870	-0.023460	-0.021239	-0.035191	0.003022
76	-0.008751	-0.000325	0.001585	-0.031808	-0.017239	-0.018652	-0.023263	-0.037986	0.004628	-0.008751	-0.000325	0.001585	-0.031808	-0.017239	-0.018652	-0.023263	-0.037986	0.004628
77	-0.009414	0.000172	0.000823	-0.042951	-0.014373	-0.012697	-0.020211	-0.043317	0.007416	-0.009414	0.000172	0.000823	-0.042951	-0.014373	-0.012697	-0.020211	-0.043317	0.007416
78	-0.010050	0.000667	0.000259	-0.051779	-0.011746	-0.007347	-0.019211	-0.049214	0.010570	-0.010050	0.000667	0.000259	-0.051779	-0.011746	-0.007347	-0.019211	-0.049214	0.010570
79	-0.010575	0.001139	-0.000110	-0.055612	-0.009724	-0.004055	-0.021126	-0.054820	0.013237	-0.010575	0.001139	-0.000110	-0.055612	-0.009724	-0.004055	-0.021126	-0.054820	0.013237
80	-0.010987	0.001540	-0.000310	-0.055686	-0.008640	-0.002868	-0.023713	-0.059581	0.015258	-0.010987	0.001540	-0.000310	-0.055686	-0.008640	-0.002868	-0.023713	-0.059581	0.015258
81	-0.011381	0.001833	-0.000406	-0.054640	-0.008420	-0.002726	-0.022387	-0.062150	0.016863	-0.011381	0.001833	-0.000406	-0.054640	-0.008420	-0.002726	-0.022387	-0.062150	0.016863
82	-0.011761	0.001984	-0.000447	-0.054285	-0.009152	-0.003172	-0.015160	-0.062385	0.018274	-0.011761	0.001984	-0.000447	-0.054285	-0.009152	-0.003172	-0.015160	-0.062385	0.018274
83	-0.012149	0.001968	-0.000431	-0.055622	-0.011333	-0.004484	-0.002730	-0.061671	0.019663	-0.012149	0.001968	-0.000431	-0.055622	-0.011333	-0.004484	-0.002730	-0.061671	0.019663
84	-0.012550	0.001780	-0.000315	-0.057919	-0.015372	-0.007040	0.010350	-0.062526	0.021654	-0.012550	0.001780	-0.000315	-0.057919	-0.015372	-0.007040	0.010350	-0.062526	0.021654
85	-0.013170	0.001509	-0.000098	-0.060346	-0.020513	-0.010015	0.022127	-0.063827	0.024123	-0.013170	0.001509	-0.000098	-0.060346	-0.020513	-0.010015	0.022127	-0.063827	0.024123
86	-0.014055	0.001235	0.000234	-0.065083	-0.025609	-0.011978	0.035221	-0.061993	0.025324	-0.014055	0.001235	0.000234	-0.065083	-0.025609	-0.011978	0.035221	-0.061993	0.025324
87	-0.014910	0.000972	0.000665	-0.074284	-0.029979	-0.012421	0.052057	-0.055383	0.023766	-0.014910	0.000972	0.000665	-0.074284	-0.029979	-0.012421	0.052057	-0.055383	0.023766
88	-0.015323	0.000731	0.001061	-0.087413	-0.033115	-0.011669	0.073616	-0.045700	0.020303	-0.015323	0.000731	0.001061	-0.087413	-0.033115	-0.011669	0.073616	-0.045700	0.020303
89	-0.014885	0.000560	0.001183	-0.104799	-0.035015	-0.010248	0.101568	-0.036631	0.017086	-0.014885	0.000560	0.001183	-0.104799	-0.035015	-0.010248	0.101568	-0.036631	0.017086
90	-0.013376	0.000537	0.000828	-0.126125	-0.036132	-0.008775	0.138325	-0.033184	0.016394	-0.013376	0.000537	0.000828	-0.126125	-0.036132	-0.008775	0.138325	-0.033184	0.016394
91	-0.010741	0.000734	-0.000093	-0.152980	-0.036867	-0.007466	0.208983	-0.044826	0.021924	-0.010741	0.000734	-0.000093	-0.152980	-0.036867	-0.007466	0.208983	-0.044826	0.021924
92	-0.007159	0.001164	-0.001502	-0.186032	-0.037368	-0.006122	0.255892	0.282028	-0.058449	-0.007159	0.001164	-0.001502	-0.186032	-0.037368	-0.006122	0.255892	0.282028	-0.058449
93	-0.002916	0.001754	-0.003231	-0.221172	-0.047215	0.001991	-0.866201	-0.153565	0.096542	-0.002916	0.001754	-0.003231	-0.221172	-0.047215	0.001991	-0.866201	-0.153565	0.096542
94	0.001771	0.002368	-0.004935	-0.256477	-0.053037	0.006701	0.648973	-0.185900	0.073462	0.001771	0.002368	-0.004935	-0.256477	-0.053037	0.006701	0.648973	-0.185900	0.073462
95	0.006301	0.002917	-0.006272	-0.284020	-0.057425	0.009871	0.415604	-0.069509	0.050767	0.006301	0.002917	-0.006272	-0.284020	-0.057425	0.009871	0.415604	-0.069509	0.050767
96	0.009844	0.003319	-0.006967	-0.295577	-0.059849	0.012160	0.387843	-0.064987	0.052885	0.009844	0.003319	-0.006967	-0.295577	-0.059849	0.012160	0.387843	-0.064987	0.052885
97	0.011430	0.003493	-0.006943	-0.282746	-0.056902	0.012920	0.334336	-0.059115	0.050049	0.011430	0.003493	-0.006943	-0.282746	-0.056902	0.012920	0.334336	-0.059115	0.050049
98	0.010386	0.003409	-0.006318	-0.241395	-0.044830	0.011606	0.233866	-0.038575	0.035642	0.010386	0.003409	-0.006318	-0.241395	-0.044830	0.011606	0.233866	-0.038575	0.035642
99	0.006638	0.003110	-0.005309	-0.176017	-0.022409	0.008918	0.097724	0.002422	0.005628	0.006638	0.003110	-0.005309	-0.176017	-0.022409	0.008918	0.097724	0.002422	0.005628
100	0.000638	0.002786	-0.004239	-0.099727	0.008405	0.006779	-0.050795	0.064333	-0.040170	0.000638	0.002786	-0.004239	-0.099727	0.008405	0.006779	-0.050795	0.064333	-0.040170
101	-0.006436	0.002706	-0.003451	-0.034513	0.041013	0.007217	-0.171147	0.135396	-0.092504	-0.006436	0.002706	-0.003451	-0.034513	0.041013	0.007217	-0.171147	0.135396	-0.092504